…
    for(i in 1:length(list_of_pages)) {
        data <- get_data_table(list_of_pages[i], companyName)
        dataTibble <- bind_rows(dataTibble, data)
    }
    return(dataTibble)
}
```
- `dplyr::bind_rows()` combine first tibble input and second tibble input
- We loop until the end of the `list_of_pages`, then export the tibble data frame.
We will have the output as follow
```R
(data <- scrape_write_table(url, "APPLE"))
```
```
## # A tibble: 5,855 x 5
##    company reviewer          date
##    <chr>   <chr>             <date>
##  1 APPLE   Abimbola Bamikole 2023-01-04
##  2 APPLE   Janet Wright      2023-03-16
##  3 APPLE   Rob Leroy         2023-03-18
##  4 APPLE   Ice House Design  2023-03-15
##  5 APPLE   noreen darragh    2023-03-19     1 This Company is so annoying
##  6 APPLE   Paul Morgan
##  7 APPLE   wizard
##  8 APPLE   Nicole Sireci
##  9 APPLE   nets
## 10 APPLE   Charlotte
## # ... with 5,845 more rows
```
…
